#Taille plateau: lignes*colonnes
6*6

#position depart:
5 0

#position but (case haut gauche = 0 0):
0 5

#Probas deviation:
default:
rester sur place : 0.9

#taille case:
100

#modification proba case par case (2 2 r:0.8 h:1 b:2 g:2 d:6)

#position 0-sink (Mort):
3 1
4 1
2 3
3 3
4 3
1 5
2 5
3 5
4 5
5 5
0 1
0 3

#position murs:

#nb murs min:
4
